11111111111111111111111111111111111111111111111111111111111111111111111111111111
11111333111111111111111111111111111111111111111111111111111122222222222222222221
11113333331111111111111111111111111111111111111111111111112222222222227222222221
11333333333111111111111111111111111111111111111111111111112222222222277722222221
11333333333111111111111111111111111111111111111111111111122222222222111112222221
11333333333331111111111111111111111111111111111111111111122222222222222222222221
13333333333333111111111111111111111111111111111111111111122222222222222221112221
13333333333333111111111111111111111111111111177771111111122111111122222222222221
11111111111111111111111111111111111111111111111111111111122222222222221111122221
11111111111111311111111111111111111117111111111111111111112222222222222222222221
11111111111133333311111111111111117111111111111711111111112222222221111222222221
11111113333333333333311111111111177711111111117111111111122222222222222222222221
11111333333333333333333333333333777111111111111111111111122222221112222222111111
11113333333333333333333333333337771111111111111111111111122222222222222222222221
11133333333333333333333333333377777111111111111111111111122222222222111222222221
11111133333333333333333333333777777711111111111111111111122222222222222222222221
11111111111333333333333333333777777771111111111111111111112222222211112222222221
11111111111111113333333333333333333337333333331171111111122222222222222222111221
11111111111111111133333333333333777333333333371111111111111122222222222222222221
11111111111111111111111111711177111711111111711117111111111122222222222221111111
11111111111111111111111177177711111771111111111111777111122222222222222222222221
11111111111111111111111711111111111117777777111111111771112222222222111222222221
17777777777777777777777111111111111111117711111111111117772222222222222222222221
11111111111111111111111111111111111111111111111111111111111111111111111111111111
