11111111111111111111111111111111111111111111111111111111111111111111111111111111
11111111111111111111111111333333333333333333333333333333333333333333333111111111
11111111111111111111111111113333333333333333333333333333333333333333331111111111
11111111111111111111333333331111333333333333333333333333333333333333311111111111
11111111111111111113333333333111111111111116666666333333333333333331111111111111
11111111111111111333333333333333311111111111116666633333333333331111111111111111
11111111111111111333333333333333331111111111111666666666666666611111111111111111
11111111111111111333333333333333333611111114411666666666666661111111111111111111
11111111111111111111333333333333336666661144441666666666666611111111111111111111
11111111111114441111111111133111111666666644446666666666666111111166616111111111
11111111111114741111111111111111111111666666666666666666666111166666161111111111
11111111111114441111111111111111111111111166666666666666666666666661111111111111
11111111444444444444111111111111111111111111166666666666666666661111111111111111
11111144444444444444441111111111111111111111111666666666666666611111111111111111
11114444444444444444444111111111111111111111111166666666666661111111111111111111
11144444333333333333333333111111111111111111111166666666666666111111111111111111
13333333333333333333333333331111111111111111111116666666666666633333333311111111
13333333333333333333333333333331111111111111111111111111111111666633333333331111
13333333333333333333333333333333311111111111113333666666666666666666663333333331
13333333333333333333333331111111111111111111133333366666666666666666666661111111
13333333333333333333333333333333333333333333333333336666666666666666666666611111
11111111111111111111111111111111111111111111111111166666666666666666666666661171
14444444444444444444444444444444444444444444777777777777777777777777777777111111
11111111111111111111111111111111111111111111111111111111111111111111111111111111
