11111111111111111111111111111111111111111111111111111111111111111111111111111111
11111111111111111111111111111111111111111111117777777777111111411111111111111661
11111111111111111111111111111111111111111111117777777777111111411144111111166111
11111111111111111111111111111111111111111111177777777771111111611144111116611111
11111111111111111111111111117111111111111117777777777711111111611111111661111111
11111111111111111111111111111777111111117777777777777111111111411111166111111111
11111111111111111111111111111177777777777777777777771111111111411116611111144111
11111111111111111111111111111111777777777777777777111111111111411661114411144111
11111111111111111111111111111111111777777777771111111111111111466111114411111111
11111111111111111111111111111111111111111111111111111111111114411661111111111611
11111111111111111111111111111111111111111111111111111111111444461116611111116461
11111111111111111111111111661111111111111111111111111111114441466611166111116461
11111111111111111111111116666111111111111111111111111111144111444444444444444441
11111111111111111111111166666611111111111111111111111111441111411111111111111111
11111111111111111111111666666661111111111111111111111111411111111111111111114411
13311111111111111111116666776666111111111111111111111111411114444444444411114411
11133333331111111111166666666666611133331111661111111111444711411161116411111111
11111111113331116666666666666666661333333366666611111111411711411646111411144441
11111111111113366666666666666666666666666666666666111111411711411646111411116661
11111777771111666666666677777766666666666666666666331133411711444444444411111661
16117777777111666666666677777766666633333366677666663311444711461111611411111161
17777777777111666666666666666666333333333333666666666666411711411116661411111111
11117111111111666666666666666663333333333333336666666666111711111446661111111171
11111111111111111111111111111111111111111111111111111111111111111111111111111111
